Getting Data Through APIs
…
Ideally, each repo would be its own row (since the repositories are the observational units). We can do this with unnest_longer().

df2 <- unnest_longer(df, repo)
df2

## # A tibble: 176 x 1
##    repo             
##    <list>           
##  1 <named list [68]>
##  2 <named list [68]>
##  3 <named list [68]>
##  4 <named list [68]>
##  5 <named list [68]>
##  6 <named list [68]>
##  7 <named list [68]>
##  8 <named list [68]>
##  9 <named list [68]>
## 10 <named list [68]>
## #  with 166 more rows
…
We can then use unnest_wider() or hoist() on this new data frame to get a tidy dataset.

df3 <- unnest_wider(df2, repo)
df3

## # A tibble: 176 x 67
##        id name  full_name owner private html_url description fork  url  
##     <int> <chr> <chr>     <lis> <lgl>   <chr>    <chr>       <lgl> <chr>
##  1 6.12e7 after gaborcsa <nam FALSE   https:/ Run Code i FALSE http
##  2 4.05e7 argu gaborcsa <nam FALSE   https:/ Declarativ FALSE http
##  3 3.64e7 ask   gaborcsa <nam FALSE   https:/ Friendly C FALSE http
##  4 3.49e7 base gaborcsa <nam FALSE   https:/ Do we get  FALSE http
##  5 6.16e7 cite gaborcsa <nam FALSE   https:/ Test R pac TRUE  http
##  6 3.39e7 clis gaborcsa <nam FALSE   https:/ Unicode sy FALSE http
##  7 3.72e7 cmak gaborcsa <nam FALSE   https:/ port of cm TRUE  http
##  8 6.80e7 cmark gaborcsa <nam FALSE   https:/ CommonMark TRUE  http
##  9 6.32e7 cond gaborcsa <nam FALSE   https:/ <NA>        TRUE  http
## 10 2.43e7 cray gaborcsa <nam FALSE   https:/ R package  FALSE http
## #  with 166 more rows, and 58 more variables: forks_url <chr>, keys_url <chr>,
## #   collaborators_url <chr>, teams_url <chr>, hooks_url <chr>,
## #   issue_events_url <chr>, events_url <chr>, assignees_url <chr>,
## #   branches_url <chr>, tags_url <chr>, blobs_url <chr>, git_tags_url <chr>,
## #   git_refs_url <chr>, trees_url <chr>, statuses_url <chr>,
## #   languages_url <chr>, stargazers_url <chr>, contributors_url <chr>,
## #   subscribers_url <chr>, subscription_url <chr>, commits_url <chr>,
## #   git_commits_url <chr>, comments_url <chr>, issue_comment_url <chr>,
## #   contents_url <chr>, compare_url <chr>, merges_url <chr>, archive_url <chr>,
…
