Dates – DATA 413/613 Data Science
…
nycflights13 example:

library(nycflights13)
data("flights")
flights |>
  mutate(datetime = make_datetime(year   = year, 
                                  month  = month, 
                                  day    = day,
                                  hour   = hour,
                                  min    = minute)) ->
  flights
  select(flights, datetime)

# A tibble: 336,776 × 1
   datetime           
   <dttm>             
 1 2013-01-01 05:15:00
 2 2013-01-01 05:29:00
 3 2013-01-01 05:40:00
 4 2013-01-01 05:45:00
 5 2013-01-01 06:00:00
 6 2013-01-01 05:58:00
 7 2013-01-01 06:00:00
 8 2013-01-01 06:00:00
 9 2013-01-01 06:00:00
10 2013-01-01 06:00:00
# ℹ 336,766 more rows
…
monarch: The name of the monarch.

num_years: The number of years of the reign.

first: The start year of the reign.

start_date: The date when each regnal year begins.

end_date: The date when each regnal year ends.

final: The final date of the reign.

Clean these data to get the start and end dates of each reign in proper date format. E.g.

# A tibble: 43 × 4
   monarch    num_years start      end       
   <chr>      <chr>     <date>     <date>    
 1 William I  21        1066-10-14 1087-09-09
 2 William II 13        1087-09-26 1100-08-02
 3 Henry I    36        1100-08-05 1135-12-01
 4 Stephen    19        1135-12-26 1154-10-25
 5 Henry II   35        1154-12-19 1189-07-06
 6 Richard I  10        1189-09-03 1199-04-06
 7 John       18        1199-05-27 1216-10-19
 8 Henry III  57        1216-10-28 1272-11-16
 9 Edward I   35        1272-11-20 1307-07-07
10 Edward II  20        1307-07-08 1327-01-20
# ℹ 33 more rows
…
