Getting Data Through APIs – DATA 413/613 Data Science
…
eout <- req_perform(wizreq)
eout

<httr2_response>
GET https://wizard-world-api.herokuapp.com/Elixirs
Status: 200 OK
Content-Type: application/json
Body: In memory (62284 bytes)

We would then clean this output (see rectangling below). But as a preview, we would do

tibble(elixir = resp_body_json(resp = eout)) |>
  unnest_wider(col = elixir)

# A tibble: 145 × 10
   id      name  effect sideEffects characteristics time  difficulty ingredients
   <chr>   <chr> <chr>  <chr>       <chr>           <chr> <chr>      <list>     
 1 0106fb… Ferg… Treat… Potential … <NA>            <NA>  Unknown    <list [3]> 
 2 021b40… Mane… Rapid… <NA>        <NA>            <NA>  Unknown    <NULL>     
 3 024f56… Poti… <NA>   <NA>        <NA>            <NA>  Unknown    <NULL>     
 4 06beea… Rudi… Helps… <NA>        <NA>            <NA>  Unknown    <list [2]> 
 5 078b53… Lung… Most … <NA>        <NA>            <NA>  Unknown    <NULL>     
 6 07944d… Esse… Menta… <NA>        Green in colour <NA>  Advanced   <list [2]> 
 7 0dd8d2… Anti… Cures… <NA>        Green in colour <NA>  Moderate   <list [4]> 
 8 0e2240… Rest… Rever… <NA>        Purple coloured <NA>  Unknown    <NULL>     
 9 0e7228… Skel… Resto… <NA>        Smokes when po… <NA>  Moderate   <list [6]> 
10 0e7f89… Chee… <NA>   <NA>        Yellow in colo… <NA>  Advanced   <list [1]> 
# ℹ 135 more rows
# ℹ 2 more variables: inventors <list>, manufacturer <chr>
…
Ideally, each repo would be its own row (since the repositories are the observational units). We can do this with unnest_longer().

df2 <- unnest_longer(df, repo)
df2

# A tibble: 176 × 1
   repo             
   <list>           
 1 <named list [68]>
 2 <named list [68]>
 3 <named list [68]>
 4 <named list [68]>
 5 <named list [68]>
 6 <named list [68]>
 7 <named list [68]>
 8 <named list [68]>
 9 <named list [68]>
10 <named list [68]>
# ℹ 166 more rows
…
We can then use unnest_wider() or hoist() on this new data frame to get a tidy dataset.

df3 <- unnest_wider(df2, repo)
df3

# A tibble: 176 × 68
        id name  full_name owner        private html_url description fork  url  
     <int> <chr> <chr>     <list>       <lgl>   <chr>    <chr>       <lgl> <chr>
 1  6.12e7 after gaborcsa… <named list> FALSE   https:/… Run Code i… FALSE http…
 2  4.05e7 argu… gaborcsa… <named list> FALSE   https:/… Declarativ… FALSE http…
 3  3.64e7 ask   gaborcsa… <named list> FALSE   https:/… Friendly C… FALSE http…
 4  3.49e7 base… gaborcsa… <named list> FALSE   https:/… Do we get … FALSE http…
 5  6.16e7 cite… gaborcsa… <named list> FALSE   https:/… Test R pac… TRUE  http…
 6  3.39e7 clis… gaborcsa… <named list> FALSE   https:/… Unicode sy… FALSE http…
 7  3.72e7 cmak… gaborcsa… <named list> FALSE   https:/… port of cm… TRUE  http…
 8  6.80e7 cmark gaborcsa… <named list> FALSE   https:/… CommonMark… TRUE  http…
 9  6.32e7 cond… gaborcsa… <named list> FALSE   https:/… <NA>        TRUE  http…
10  2.43e7 cray… gaborcsa… <named list> FALSE   https:/… R package … FALSE http…
# ℹ 166 more rows
# ℹ 59 more variables: forks_url <chr>, keys_url <chr>,
#   collaborators_url <chr>, teams_url <chr>, hooks_url <chr>,
#   issue_events_url <chr>, events_url <chr>, assignees_url <chr>,
#   branches_url <chr>, tags_url <chr>, blobs_url <chr>, git_tags_url <chr>,
#   git_refs_url <chr>, trees_url <chr>, statuses_url <chr>,
#   languages_url <chr>, stargazers_url <chr>, contributors_url <chr>, …
…
library(repurrrsive)
data("got_chars")

NASA Exercise

Consider the NASA API

Generate an API key and save it as NASA_API_KEY in your R environment file.

Read about the APOD API and obtain all images from January of 2022.

Clean the output into a data frame, like this:

# A tibble: 31 × 8
   copyright      date  explanation hdurl media_type service_version title url  
   <chr>          <chr> <chr>       <chr> <chr>      <chr>           <chr> <chr>
 1 "Soumyadeep M… 2022… very Full … http… image      v1              The … http…
 2 "\nDani Caxet… 2022… Sometimes … http… image      v1              Quad… http…
 3 "\nJan Hatten… 2022… You couldn… http… image      v1              Come… http…
 4  <NA>          2022… What's hap… http… image      v1              Moon… http…
 5 "\nLuca Vanze… 2022… Does the S… http… image      v1              A Ye… http…
 6 "Tamas Ladany… 2022… That's not… http… image      v1              The … http…
 7 "Point Blue C… 2022… A male Ade… http… image      v1              Ecst… http…
 8 "Cheng Luo"    2022… Named for … http… image      v1              Quad… http…
 9  <NA>          2022… What will … http… image      v1              Hubb… http…
10  <NA>          2022… Why does C… <NA>  video      v1              Come… http…
# ℹ 21 more rows
