Eventbrite OAuth2 Example – DATA 413/613 Data Science
…
Here is the output:

tibble(dat = resp_body_json(rout)[[3]]) |>
  unnest_wider(dat)

# A tibble: 21 × 6
   resource_uri       id    name  name_localized short_name short_name_localized
   <chr>              <chr> <chr> <chr>          <chr>      <chr>               
 1 https://www.event… 103   Music Music          Music      Music               
 2 https://www.event… 101   Busi… Business & Pr… Business   Business            
 3 https://www.event… 110   Food… Food & Drink   Food & Dr… Food & Drink        
 4 https://www.event… 113   Comm… Community & C… Community  Community           
 5 https://www.event… 105   Perf… Performing & … Arts       Arts                
 6 https://www.event… 104   Film… Film, Media &… Film & Me… Film & Media        
 7 https://www.event… 108   Spor… Sports & Fitn… Sports & … Sports & Fitness    
 8 https://www.event… 107   Heal… Health & Well… Health     Health              
 9 https://www.event… 102   Scie… Science & Tec… Science &… Science & Tech      
10 https://www.event… 109   Trav… Travel & Outd… Travel & … Travel & Outdoor    
# ℹ 11 more rows
…
