Web Scraping with rvest – DATA 413/613 Data Science
…
      title ~ "Title",
      year ~ "Year",
      metascore ~ "Metascore")) |>
  select(rank, text, type) |>
  pivot_wider(
    names_from = type,
    values_from = text) |>
  mutate(
    Title = str_remove(Title, "\\d+\\."),
    Metascore = str_remove(Metascore, "Metascore"),
    Title = str_squish(Title),
    Year = parse_integer(Year),
    Metascore = parse_integer(Metascore))

# A tibble: 100 × 4
    rank Title                            Year Metascore
   <int> <chr>                           <int>     <int>
 1     1 The Godfather                    1972       100
 2     2 The Shawshank Redemption         1994        82
 3     3 Schindler's List                 1993        95
 4     4 Raging Bull                      1980        90
 5     5 Casablanca                       1942       100
 6     6 Citizen Kane                     1941       100
 7     7 Gone with the Wind               1939        97
 8     8 The Wizard of Oz                 1939        92
 9     9 One Flew Over the Cuckoo's Nest  1975        84
10    10 Lawrence of Arabia               1962       100
# ℹ 90 more rows
…
