Data Manipulation with Pandas – DATA 413/613 Data Science
…
select(estate, -Price, -Area)

Renaming variables is done with rename().

Python

estate.rename({'Price': 'price', 'Area': 'area'}, axis = 'columns')

R equivalence:

R

rename(estate, price = Price, area = Area)

# A tibble: 522 × 12
    price  area   Bed  Bath    AC Garage  Pool  Year Quality Style   Lot Highway
    <dbl> <dbl> <dbl> <dbl> <dbl>  <dbl> <dbl> <dbl> <chr>   <dbl> <dbl>   <dbl>
 1 360000  3032     4     4     1      2     0  1972 Medium      1 22221       0
 2 340000  2058     4     2     1      2     0  1976 Medium      1 22912       0
 3 250000  1780     4     3     1      2     0  1980 Medium      1 21345       0
 4 205500  1638     4     2     1      2     0  1963 Medium      1 17342       0
 5 275500  2196     4     3     1      2     0  1968 Medium      7 21786       0
 6 248000  1966     4     3     1      5     1  1972 Medium      1 18902       0
 7 229900  2216     3     2     1      2     0  1972 Medium      7 18639       0
 8 150000  1597     2     1     1      1     0  1955 Medium      1 22112       0
 9 195000  1622     3     2     1      2     0  1975 Low         1 14321       0
10 160000  1976     3     3     0      1     0  1918 Low         1 32358       0
# ℹ 512 more rows
…
