SQL – DATA 413/613 Data Science
…
R equivalent:

R

planes |>
  select(tailnum, type) ->
  planes2
flights |>
  select(flight, tailnum) |>
  left_join(planes2, by = "tailnum")

# A tibble: 336,776 × 3
   flight tailnum type                   
    <int> <chr>   <chr>                  
 1   1545 N14228  Fixed wing multi engine
 2   1714 N24211  Fixed wing multi engine
 3   1141 N619AA  Fixed wing multi engine
 4    725 N804JB  Fixed wing multi engine
 5    461 N668DN  Fixed wing multi engine
 6   1696 N39463  Fixed wing multi engine
 7    507 N516JB  Fixed wing multi engine
 8   5708 N829AS  Fixed wing multi engine
 9     79 N593JB  Fixed wing multi engine
10    301 N3ALAA  <NA>                   
# ℹ 336,766 more rows
…
