Many Models
…
Exercise: For China, fit a linear model for log-population on year. Make sure the assumptions of the linear model are fulfilled. Interpret the coefficients

Nest

The nest() function from the tidyr package will turn a grouped data frame into a data frame where each group is a row. All of the observations are placed in the data variable as a data frame. Lets look at an example.

gapminder %>%
  group_by(country, continent) %>%
  nest() ->
  nested_gap_df

nested_gap_df

## # A tibble: 142 x 3
## # Groups:   country, continent [710]
##    country     continent           data
##    <fct>       <fct>     <list<df[,5]>>
##  1 Afghanistan Asia            [12  5]
##  2 Albania     Europe          [12  5]
##  3 Algeria     Africa          [12  5]
##  4 Angola      Africa          [12  5]
##  5 Argentina   Americas        [12  5]
##  6 Australia   Oceania         [12  5]
##  7 Austria     Europe          [12  5]
##  8 Bahrain     Asia            [12  5]
##  9 Bangladesh  Asia            [12  5]
## 10 Belgium     Europe          [12  5]
## #  with 132 more rows
…
Fit a model

We can now use purrr to fit a model on all of the elements of data.

nested_gap_df %>%
  mutate(lmout = map(data, ~lm(lifeExp ~ year, data = .))) ->
  nested_gap_df

Recall: the data = . argument says that we should place all of the elements from the data column in the nested_gap_df data frame as the data argument in lm().

Lets look at the results

nested_gap_df

## # A tibble: 142 x 4
## # Groups:   country, continent [710]
##    country     continent           data lmout 
##    <fct>       <fct>     <list<df[,5]>> <list>
##  1 Afghanistan Asia            [12  5] <lm>  
##  2 Albania     Europe          [12  5] <lm>  
##  3 Algeria     Africa          [12  5] <lm>  
##  4 Angola      Africa          [12  5] <lm>  
##  5 Argentina   Americas        [12  5] <lm>  
##  6 Australia   Oceania         [12  5] <lm>  
##  7 Austria     Europe          [12  5] <lm>  
##  8 Bahrain     Asia            [12  5] <lm>  
##  9 Bangladesh  Asia            [12  5] <lm>  
## 10 Belgium     Europe          [12  5] <lm>  
## #  with 132 more rows
…
Exercise: Use tidy() to get model summaries of your linear model fits of log-population on year. Add these summaries as another column in nested_gap_df.

Unnest

Use the unnest() function, followed by the ungroup() function, to unnest a single list column.

unnest(nested_gap_df, tidyout) %>%
  ungroup() ->
  model_summary_df

model_summary_df

## # A tibble: 284 x 13
##    country continent     data lmout term  estimate std.error statistic
##    <fct>   <fct>     <list<d> <lis> <chr>    <dbl>     <dbl>     <dbl>
##  1 Afghan Asia      [12  5] <lm>  (Int -5.08e+2  40.5        -12.5 
##  2 Afghan Asia      [12  5] <lm>  year   2.75e-1   0.0205      13.5 
##  3 Albania Europe    [12  5] <lm>  (Int -5.94e+2  65.7         -9.05
##  4 Albania Europe    [12  5] <lm>  year   3.35e-1   0.0332      10.1 
##  5 Algeria Africa    [12  5] <lm>  (Int -1.07e+3  43.8        -24.4 
##  6 Algeria Africa    [12  5] <lm>  year   5.69e-1   0.0221      25.7 
##  7 Angola  Africa    [12  5] <lm>  (Int -3.77e+2  46.6         -8.08
##  8 Angola  Africa    [12  5] <lm>  year   2.09e-1   0.0235       8.90
##  9 Argent Americas  [12  5] <lm>  (Int -3.90e+2   9.68       -40.3 
## 10 Argent Americas  [12  5] <lm>  year   2.32e-1   0.00489     47.4 
## #  with 274 more rows, and 5 more variables: p.value <dbl>,
## #   conf.low <dbl>, conf.high <dbl>, augmentout <list>, glanceout <list>
…
